{
    "հագ": "յագ",
    "հախճապակի": "յախճապակի",
    "հախուռն": "յախուռն",
    "հածանավ": "յածանաւ",
    "հականե": "յականէ",
    "հակինթ": "յակինթ",
    "հաղթ": "յաղթ",
    "հաճախ": "յաճախ",
    "համառ": "յամառ",
    "հահտ": "յայտ",
    "հանգ": "յանգ",
    "հանդիման": "յանդիման",
    "հանդիմանել": "յանդիմանել",
    "հանդուգն": "յանդուգն",
    "հանկարծ": "յանկարծ",
    "հանկերգ": "յանկերգ",
    "հանձն": "յանձն",
    "հանցագործ": "յանցագործ",
    "հանցանք": "յանցանք",
    "հապաղել": "յապաղել",
    "հապավել": "յապաւել",
    "հաջող": "յաջող",
    "հաջորդ": "յաջորդ",
    "հառել": "յառել",
    "հառնել": "յառնել",
    "հասմիկ": "յասմիկ",
    "հասպիս": "յասպիս",
    "հատակ": "յատակ",
    "հատուկ": "յատուկ",
    "հար": "յար",
    "հարաբերություն": "յարաբերութիւն",
    "հարատև": "յարատեւ",
    "հարգ": "յարգ",
    "հարդ": "յարդ",
    "հարդարել": "յարդարել",
    "հարկ": "յարկ",
    "հարկանի": "յարկանի",
    "հարձակուել": "յարձակուել",
    "հարմար": "յարմար",
    "հարություն": "Յարութիւն",
    "հավակնել": "յաւակնել",
    "հավելյալ": "յաւելեալ",
    "հավերժ": "յաւերժ",
    "հավետ": "յաւէտ",
    "հափշտակել": "յափշտակել",
    "հեղ": "յեղ",
    "հեն": "յեն",
    "հեսան": "յեսան",
    "հետ": "յետ",
    "հետո": "յետոյ",
    "հերյուրանք": "յերիւրանք",
    "հիմար": "յիմար",
    "հիշատակ": "յիշատակ",
    "հիշել": "յիշել",
    "հիշոց": "յիշոց",
    "հիսուն": "յիսուն",
    "հիրավի": "յիրաւի",
    "հղել": "յղել",
    "հղի": "յղի",
    "հղկել": "յղկել",
    "հղփանալ": "յղփանալ",
    "հոբելյան": "յոբելեան",
    "հոգ": "յոգ",
    "հոգնակի": "յոգնակի",
    "հոխորտալ": "յոխորտալ",
    "հողդողդ": "յողդողդ",
    "հույզ": "յոյզ",
    "հույժ": "յոյժ",
    "հույն": "յոյն",
    "հույս": "յոյս",
    "հոպոպ": "յոպոպ",
    "հոռի": "յոռի",
    "հովազ": "յովազ",
    "հովատակ": "յովատակ",
    "հորդ": "յորդ",
    "հորդոր": "յորդոր",
    "հորձ": "յորձ",
    "հորջորջել": "յորջորջել",
    "հուզել": "յուզել",
    "հուլիս": "յուլիս",
    "հուղարկ": "յուղարկ",
    "հունապ": "յունապ",
    "հունիս": "յունիս",
    "հունվար": "յունուար",
    "հուշ": "յուշ",
    "հուռթի": "յուռթի",
    "հուռութ": "յուռութ",
    "հուսալ": "յուսալ",
    "հստակ": "յստակ",
    "հոդ": "յօդ",
    "հոդված": "յօդուած",
    "հոժար": "յօժար",
    "հոնք": "յօնք",
    "հոշոտել": "յօշոտել",
    "հորանջ": "յօրանջ",
    "հորինել։": "յօրինել։"
}
