{
    "ա ": "այ ",
    "ո ": "ոյ ",
    "ե ": "է ",
    "ո ": "օ ",
    "բվ": "բու",
    "գվ": "գու",
    "դվ": "դու",
    "ձվ": "ձու",
    "ջվ": "ջու",
    "զվ": "զու",
    "ժվ": "ժու",
    "ղվ": "ղու",
    "պվ": "պու",
    "կվ": "կու",
    "տվ": "տու",
    "ծվ": "ծու",
    "ճվ": "ճու",
    "սվ": "սու",
    "շվ": "շու",
    "խվ": "խու",
    "հվ": "հու",
    "փվ": "փու",
    "քվ": "քու",
    "թվ": "թու",
    "ցվ": "ցու",
    "չվ": "չու",
    "վա": "ուա",
    "վե": "ուե",
    "վէ": "ուէ",
    "վի": "ուի",
    "վո": "ուո"
}
