{
    "ակոս": "ակօս",
    "աղոթք": "աղօթք",
    "աղոտ": "աղօտ",
    "աղորիք": "աղօրիք",
    "ամոթ": "ամօթ",
    "անոթ": "անօթ",
    "անոթի": "անօթի",
    "ապարոշ": "ապարօշ",
    "առավոտ": "առաւօտ",
    "արտոնյալ": "արտօնեալ",
    "արտոսր": "արտօսր",
    "արոտ": "արօտ",
    "արոր": "արօր",
    "բռնազբոսիկ": "բռնազբօսիկ",
    "բոթ": "բօթ",
    "գոշ": "գօշ",
    "գոս": "գօս",
    "գոտի": "գօտի",
    "դրոշ": "դրօշ",
    "դոդոշ": "դօդօշ",
    "յոթ": "եօթ",
    "զբոսնել": "զբօսնել",
    "զգոն": "զգօն",
    "զոդ": "զօդ",
    "զոշաքաղ": "զօշաքաղ",
    "զորավիգ": "զօրավիգ",
    "զորեղ": "զօրեղ",
    "զոր": "զօր",
    "թափոր": "թափօր",
    "թոթափել": "թօթափել",
    "թոթուել": "թօթուել",
    "թոն": "թօն",
    "թոշնել": "թօշնել",
    "լոթի": "լօթի",
    "լոլիկ": "լօլիկ",
    "խոլ": "խօլ",
    "խոսել": "խօսել",
    "խոս": "խօս",
    "ծանոթ": "ծանօթ",
    "ծղոտ": "ծղօտ",
    "ծնոտ": "ծնօտ",
    "կարոտ": "կարօտ",
    "կտրոտ": "կտրօտ",
    "կրոն": "կրօն",
    "կոշիկ": "կօշիկ",
    "համառոտ": "համառօտ",
    "հետազոտել": "հետազօտել",
    "հոտ": "հօտ",
    "ձոն": "ձօն",
    "ղողանջ": "ղօղանջ",
    "ճոճ": "ճօճ",
    "մոտ": "մօտ",
    "մոր": "մօր",
    "մորուք": "մօրուք",
    "հոդ": "յօդ",
    "հոժար": "յօժար",
    "հոնք": "յօնք",
    "հոշոտել": "յօշոտել",
    "հորանջ": "յօրանջ",
    "հորինել": "յօրինել",
    "նարոտ": "նարօտ",
    "պաշտոն": "պաշտօն",
    "պռոշ": "պռօշ",
    "սոլ": "սօլ",
    "սոսափ": "սօսափ",
    "սոսի": "սօսի",
    "վառոդ": "վառօդ",
    "տոթ": "տօթ",
    "տոն": "տօն",
    "ցող": "ցօղ",
    "ցողուն": "ցօղուն",
    "քող": "քօղ",
    "օրոր": "օրօր",
    "առոտ": "առօտ",
    "յոք": "եօք",
    "ոն": "օն",
    "ոնք": "օնք",
    "որեն": "օրէն",
    "ոք": "օք"
}
